{
  "stat":"ok",
  "photos": {
    "page":1,
    "pages":47878,
    "perpage":1,
    "total":"47878",
    "photo": [
      {"id":"5007481380","owner":"87889801@N00","secret":"618058a1d3","server":"4126","farm":5,"title":"My reward for not hitting the snooze button this morning.","ispublic":1,"isfriend":0,"isfamily":0}
    ]
  }
}
